digraph G {
  "@moodlenet/arangodb";
  "@moodlenet/core";
  "@moodlenet/authentication-manager";
  "@moodlenet/crypto";
  "@moodlenet/component-library";
  "@moodlenet/content-graph";
  "@moodlenet/key-value-store";
  "@moodlenet/create";
  "@moodlenet/email-service";
  "@moodlenet/extensions-manager";
  "@moodlenet/react-app";
  "@moodlenet/http-server";
  "my-moodlenet-mjs-pkg-template" [ style = "dashed" ];
  "@moodlenet/organization";
  "@moodlenet/passport-auth";
  "@moodlenet/simple-email-auth";
  "storybook-vite" [ style = "dashed" ];
  "@moodlenet/arangodb" -> "@moodlenet/core" [ style = "dashed" ];
  "@moodlenet/arangodb" -> "@moodlenet/core" [ style = "dotted" ];
  "@moodlenet/authentication-manager" -> "@moodlenet/arangodb" [ style = "dashed" ];
  "@moodlenet/authentication-manager" -> "@moodlenet/core" [ style = "dashed" ];
  "@moodlenet/authentication-manager" -> "@moodlenet/crypto" [ style = "dashed" ];
  "@moodlenet/authentication-manager" -> "@moodlenet/arangodb" [ style = "dotted" ];
  "@moodlenet/authentication-manager" -> "@moodlenet/core" [ style = "dotted" ];
  "@moodlenet/authentication-manager" -> "@moodlenet/crypto" [ style = "dotted" ];
  "@moodlenet/content-graph" -> "@moodlenet/arangodb" [ style = "dashed" ];
  "@moodlenet/content-graph" -> "@moodlenet/core" [ style = "dashed" ];
  "@moodlenet/content-graph" -> "@moodlenet/key-value-store" [ style = "dashed" ];
  "@moodlenet/content-graph" -> "@moodlenet/arangodb" [ style = "dotted" ];
  "@moodlenet/content-graph" -> "@moodlenet/core" [ style = "dotted" ];
  "@moodlenet/content-graph" -> "@moodlenet/key-value-store" [ style = "dotted" ];
  "@moodlenet/crypto" -> "@moodlenet/core" [ style = "dashed" ];
  "@moodlenet/crypto" -> "@moodlenet/key-value-store" [ style = "dashed" ];
  "@moodlenet/crypto" -> "@moodlenet/core" [ style = "dotted" ];
  "@moodlenet/crypto" -> "@moodlenet/key-value-store" [ style = "dotted" ];
  "@moodlenet/email-service" -> "@moodlenet/core" [ style = "dashed" ];
  "@moodlenet/email-service" -> "@moodlenet/key-value-store" [ style = "dashed" ];
  "@moodlenet/email-service" -> "@moodlenet/core" [ style = "dotted" ];
  "@moodlenet/email-service" -> "@moodlenet/key-value-store" [ style = "dotted" ];
  "@moodlenet/extensions-manager" -> "@moodlenet/component-library" [ style = "dashed" ];
  "@moodlenet/extensions-manager" -> "@moodlenet/core" [ style = "dashed" ];
  "@moodlenet/extensions-manager" -> "@moodlenet/react-app" [ style = "dashed" ];
  "@moodlenet/extensions-manager" -> "@moodlenet/component-library" [ style = "dotted" ];
  "@moodlenet/extensions-manager" -> "@moodlenet/core" [ style = "dotted" ];
  "@moodlenet/extensions-manager" -> "@moodlenet/react-app" [ style = "dotted" ];
  "@moodlenet/http-server" -> "@moodlenet/authentication-manager" [ style = "dashed" ];
  "@moodlenet/http-server" -> "@moodlenet/core" [ style = "dashed" ];
  "@moodlenet/http-server" -> "@moodlenet/authentication-manager" [ style = "dotted" ];
  "@moodlenet/http-server" -> "@moodlenet/core" [ style = "dotted" ];
  "@moodlenet/key-value-store" -> "@moodlenet/arangodb" [ style = "dashed" ];
  "@moodlenet/key-value-store" -> "@moodlenet/core" [ style = "dashed" ];
  "@moodlenet/key-value-store" -> "@moodlenet/arangodb" [ style = "dotted" ];
  "@moodlenet/key-value-store" -> "@moodlenet/core" [ style = "dotted" ];
  "my-moodlenet-mjs-pkg-template" -> "@moodlenet/component-library" [ style = "dashed" ];
  "my-moodlenet-mjs-pkg-template" -> "@moodlenet/core" [ style = "dashed" ];
  "my-moodlenet-mjs-pkg-template" -> "@moodlenet/react-app" [ style = "dashed" ];
  "my-moodlenet-mjs-pkg-template" -> "@moodlenet/component-library" [ style = "dotted" ];
  "my-moodlenet-mjs-pkg-template" -> "@moodlenet/core" [ style = "dotted" ];
  "my-moodlenet-mjs-pkg-template" -> "@moodlenet/react-app" [ style = "dotted" ];
  "@moodlenet/organization" -> "@moodlenet/core" [ style = "dashed" ];
  "@moodlenet/organization" -> "@moodlenet/key-value-store" [ style = "dashed" ];
  "@moodlenet/organization" -> "@moodlenet/core" [ style = "dotted" ];
  "@moodlenet/organization" -> "@moodlenet/key-value-store" [ style = "dotted" ];
  "@moodlenet/passport-auth" -> "@moodlenet/authentication-manager" [ style = "dashed" ];
  "@moodlenet/passport-auth" -> "@moodlenet/component-library" [ style = "dashed" ];
  "@moodlenet/passport-auth" -> "@moodlenet/content-graph" [ style = "dashed" ];
  "@moodlenet/passport-auth" -> "@moodlenet/core" [ style = "dashed" ];
  "@moodlenet/passport-auth" -> "@moodlenet/http-server" [ style = "dashed" ];
  "@moodlenet/passport-auth" -> "@moodlenet/react-app" [ style = "dashed" ];
  "@moodlenet/passport-auth" -> "@moodlenet/authentication-manager" [ style = "dotted" ];
  "@moodlenet/passport-auth" -> "@moodlenet/component-library" [ style = "dotted" ];
  "@moodlenet/passport-auth" -> "@moodlenet/content-graph" [ style = "dotted" ];
  "@moodlenet/passport-auth" -> "@moodlenet/core" [ style = "dotted" ];
  "@moodlenet/passport-auth" -> "@moodlenet/http-server" [ style = "dotted" ];
  "@moodlenet/passport-auth" -> "@moodlenet/react-app" [ style = "dotted" ];
  "@moodlenet/react-app" -> "@moodlenet/arangodb" [ style = "dashed" ];
  "@moodlenet/react-app" -> "@moodlenet/authentication-manager" [ style = "dashed" ];
  "@moodlenet/react-app" -> "@moodlenet/component-library" [ style = "dashed" ];
  "@moodlenet/react-app" -> "@moodlenet/content-graph" [ style = "dashed" ];
  "@moodlenet/react-app" -> "@moodlenet/core" [ style = "dashed" ];
  "@moodlenet/react-app" -> "@moodlenet/http-server" [ style = "dashed" ];
  "@moodlenet/react-app" -> "@moodlenet/key-value-store" [ style = "dashed" ];
  "@moodlenet/react-app" -> "@moodlenet/organization" [ style = "dashed" ];
  "@moodlenet/react-app" -> "@moodlenet/arangodb" [ style = "dotted" ];
  "@moodlenet/react-app" -> "@moodlenet/authentication-manager" [ style = "dotted" ];
  "@moodlenet/react-app" -> "@moodlenet/component-library" [ style = "dotted" ];
  "@moodlenet/react-app" -> "@moodlenet/content-graph" [ style = "dotted" ];
  "@moodlenet/react-app" -> "@moodlenet/core" [ style = "dotted" ];
  "@moodlenet/react-app" -> "@moodlenet/http-server" [ style = "dotted" ];
  "@moodlenet/react-app" -> "@moodlenet/key-value-store" [ style = "dotted" ];
  "@moodlenet/react-app" -> "@moodlenet/organization" [ style = "dotted" ];
  "@moodlenet/simple-email-auth" -> "@moodlenet/arangodb" [ style = "dashed" ];
  "@moodlenet/simple-email-auth" -> "@moodlenet/authentication-manager" [ style = "dashed" ];
  "@moodlenet/simple-email-auth" -> "@moodlenet/component-library" [ style = "dashed" ];
  "@moodlenet/simple-email-auth" -> "@moodlenet/content-graph" [ style = "dashed" ];
  "@moodlenet/simple-email-auth" -> "@moodlenet/core" [ style = "dashed" ];
  "@moodlenet/simple-email-auth" -> "@moodlenet/crypto" [ style = "dashed" ];
  "@moodlenet/simple-email-auth" -> "@moodlenet/email-service" [ style = "dashed" ];
  "@moodlenet/simple-email-auth" -> "@moodlenet/http-server" [ style = "dashed" ];
  "@moodlenet/simple-email-auth" -> "@moodlenet/react-app" [ style = "dashed" ];
  "@moodlenet/simple-email-auth" -> "@moodlenet/arangodb" [ style = "dotted" ];
  "@moodlenet/simple-email-auth" -> "@moodlenet/authentication-manager" [ style = "dotted" ];
  "@moodlenet/simple-email-auth" -> "@moodlenet/component-library" [ style = "dotted" ];
  "@moodlenet/simple-email-auth" -> "@moodlenet/content-graph" [ style = "dotted" ];
  "@moodlenet/simple-email-auth" -> "@moodlenet/core" [ style = "dotted" ];
  "@moodlenet/simple-email-auth" -> "@moodlenet/crypto" [ style = "dotted" ];
  "@moodlenet/simple-email-auth" -> "@moodlenet/email-service" [ style = "dotted" ];
  "@moodlenet/simple-email-auth" -> "@moodlenet/http-server" [ style = "dotted" ];
  "@moodlenet/simple-email-auth" -> "@moodlenet/react-app" [ style = "dotted" ];
  "storybook-vite" -> "@moodlenet/component-library" [ style = "dashed" ];
  "storybook-vite" -> "@moodlenet/extensions-manager" [ style = "dashed" ];
  "storybook-vite" -> "@moodlenet/passport-auth" [ style = "dashed" ];
  "storybook-vite" -> "@moodlenet/react-app" [ style = "dashed" ];
  "storybook-vite" -> "@moodlenet/simple-email-auth" [ style = "dashed" ];
}
